5.14286e+01 2.99731e-04 2
7.27310e+01 4.67421e-04 2
1.10951e+02 7.40851e-04 6
1.56253e+02 1.11927e-03 8
2.09856e+02 1.25284e-03 16
2.77187e+02 1.53753e-03 22
3.68916e+02 1.65174e-03 50
4.96711e+02 1.77463e-03 82
6.69898e+02 1.82379e-03 160
9.05609e+02 1.81047e-03 284
1.22278e+03 1.74557e-03 524
1.64947e+03 1.64160e-03 942
2.22758e+03 1.50995e-03 1740
