5.142860000000000298e+01 2.601745399999999628e-04
7.273099999999999454e+01 -9.194898666666664772e-06
1.109509999999999934e+02 2.398535939999999801e-04
1.562529999999999859e+02 5.506305199999999601e-04
2.098559999999999945e+02 -2.360854000000000216e-05
2.771870000000000118e+02 5.320034666666667578e-04
3.689159999999999968e+02 4.390252333333333461e-04
4.967110000000000127e+02 5.289071999999999697e-04
6.698980000000000246e+02 5.351182699999999055e-04
9.056090000000000373e+02 4.623149999999998723e-04
1.222779999999999973e+03 1.605757433333333383e-03
1.649470000000000027e+03 8.262107666666666404e-04
2.227579999999999927e+03 -2.325136400000000732e-04
