5.142860000000000298e+01 4.901212700000000515e-04
7.273099999999999454e+01 6.270666319999999849e-04
1.109509999999999934e+02 9.752250933333333864e-04
1.562529999999999859e+02 1.141838076666666559e-03
2.098559999999999945e+02 1.558219093333333260e-03
2.771870000000000118e+02 1.721207516666666687e-03
3.689159999999999968e+02 2.155946033333333220e-03
4.967110000000000127e+02 1.929636876666666759e-03
6.698980000000000246e+02 2.361876633333333426e-03
9.056090000000000373e+02 2.137755166666666443e-03
1.222779999999999973e+03 1.714138915333333251e-03
1.649470000000000027e+03 1.609896600000000188e-03
2.227579999999999927e+03 7.482931936666666062e-04
