5.142860000000000298e+01 1.798173493333333139e-04
7.273099999999999454e+01 5.393769666666665746e-04
1.109509999999999934e+02 2.503400399999999404e-04
1.562529999999999859e+02 1.075189363333333304e-03
2.098559999999999945e+02 1.093228196666666584e-03
2.771870000000000118e+02 1.231641430999999478e-03
3.689159999999999968e+02 1.304535986666666668e-03
4.967110000000000127e+02 1.833488273333333486e-03
6.698980000000000246e+02 1.632232203333333414e-03
9.056090000000000373e+02 1.225843278000000088e-03
1.222779999999999973e+03 1.591570100000000302e-03
1.649470000000000027e+03 1.457677366666666752e-03
2.227579999999999927e+03 1.490532899999999798e-03
