5.142860000000000298e+01 3.814069966666666645e-04
7.273099999999999454e+01 4.045392300000000404e-04
1.109509999999999934e+02 8.220145033333331637e-04
1.562529999999999859e+02 1.556900183333333274e-03
2.098559999999999945e+02 1.280867316666666617e-03
2.771870000000000118e+02 1.492105100000000331e-03
3.689159999999999968e+02 1.594773566666666566e-03
4.967110000000000127e+02 1.782017373333333104e-03
6.698980000000000246e+02 2.085387733333333472e-03
9.056090000000000373e+02 1.689640466666666747e-03
1.222779999999999973e+03 1.745569910000000034e-03
1.649470000000000027e+03 1.366733866666666785e-03
2.227579999999999927e+03 1.271511496666666470e-03
